<svg width="840" height="989" viewBox="0 0 840 989" fill="none" xmlns="http://www.w3.org/2000/svg">
<path opacity="0.1" d="M135.867 985.37C70 975 0.557196 917.329 0.557196 917.329L0 26.7942C12.9151 22.0413 25.8303 17.7887 38.2288 12.2854C71.8081 -2.22329 108.229 -2.22329 141.808 3.78032C204.576 14.7869 261.144 41.8032 309.188 83.5783C331.402 102.59 356.974 114.347 386.421 117.349C411.993 120.1 436.79 116.848 460.812 110.094C460.812 110.094 520.508 86.4342 608.561 79.0756C696.614 71.717 795.055 114.847 825.277 202.4C825.535 202.9 825.793 203.65 826.051 204.4L826.052 204.401C829.668 215.157 833.026 226.164 836.384 236.92C838.45 243.675 839.483 250.679 839.483 257.683L840 287.451C840 295.956 838.45 309.964 836.9 318.219C829.926 354.241 813.911 385.51 787.823 412.276L787.681 412.422C771.196 429.385 754.463 446.601 741.07 465.808C724.28 490.073 718.339 516.088 724.539 545.356C732.288 580.627 751.402 610.645 771.033 640.413C781.365 656.423 792.214 672.182 799.705 689.443C808.229 709.204 807.196 730.467 802.804 751.48C792.472 800.009 765.35 837.031 720.148 860.295C695.35 873.053 668.229 877.305 639.299 874.804C615.018 872.803 592.029 867.55 571.107 857.293C539.594 841.784 507.823 827.025 472.694 820.271C434.465 813.017 398.044 818.02 364.465 836.031C330.369 854.542 305.83 883.309 286.199 915.578C247.773 987.033 201.734 995.741 135.867 985.37Z" fill="url(#paint0_linear)"/>
<defs>
<linearGradient id="paint0_linear" x1="764.4" y1="173.072" x2="-30.8803" y2="570.609" gradientUnits="userSpaceOnUse">
<stop stop-color="#FFC371"/>
<stop offset="1" stop-color="#FF5F6D"/>
</linearGradient>
</defs>
</svg>
