<svg width="46" height="30" viewBox="0 0 46 30" fill="none" xmlns="http://www.w3.org/2000/svg">
<path d="M38.6842 12.4326C38.6052 5.67238 33 0 26.1316 0C21.7105 0 17.6052 2.33112 15.3158 5.67238C14.3684 5.05075 13.1053 4.66223 11.8421 4.66223C8.36841 4.66223 5.52631 7.45957 5.52631 10.8785C5.52631 11.0339 5.52631 11.1117 5.52631 11.2671C5.52631 11.4225 5.52631 11.5779 5.52631 11.6556C2.36842 13.132 0 16.7063 0 20.3584C0 25.4092 4.18421 29.5275 9.31578 29.5275H28.6579C28.7368 29.5275 28.8947 29.5275 28.9737 29.5275C29.0526 29.5275 29.2105 29.5275 29.2894 29.5275H37.1052C41.921 29.5275 45.7894 25.6423 45.7894 20.98C45.7894 16.784 42.7105 13.2097 38.6842 12.4326Z" fill="white"/>
<path d="M23.6562 10.8262L23.6562 21.1704" stroke="#FFA536" stroke-width="2" stroke-linecap="round" stroke-linejoin="round"/>
<path d="M27.3145 18.5781L23.6567 21.4225L19.9998 18.5781" stroke="#FFAB4E" stroke-width="2" stroke-linecap="round" stroke-linejoin="round"/>
</svg>
