<svg width="129" height="192" viewBox="0 0 129 192" fill="none" xmlns="http://www.w3.org/2000/svg">
<path opacity="0.1" d="M128.004 172V0.84362C128.004 0.84362 89.7778 -7.87307 86.3028 30.7317C82.8277 69.3365 121.054 123.698 95.5695 150.472C70.0855 177.246 42.6376 144.662 24.3304 153.395C-0.502744 165.241 0.0046885 192 0.0046885 192H108.004C119.05 192 128.004 183.046 128.004 172Z" fill="url(#paint0_linear)"/>
<defs>
<linearGradient id="paint0_linear" x1="116.484" y1="33.6" x2="-14.7763" y2="85.1001" gradientUnits="userSpaceOnUse">
<stop stop-color="#FEE77A"/>
<stop offset="1" stop-color="#FFA751"/>
</linearGradient>
</defs>
</svg>
