<svg width="13" height="14" viewBox="0 0 13 14" fill="none" xmlns="http://www.w3.org/2000/svg">
<path d="M11.042 4.51953L5.52112 12.0404L1.00024 7.51953" stroke="url(#paint0_linear)" stroke-width="2" stroke-linejoin="round"/>
<defs>
<linearGradient id="paint0_linear" x1="9.63839" y1="5.95471" x2="4.65293" y2="10.8668" gradientUnits="userSpaceOnUse">
<stop stop-color="#4B33E1"/>
<stop offset="0.998623" stop-color="#892AE2"/>
</linearGradient>
</defs>
</svg>
