<svg width="15" height="17" viewBox="0 0 15 17" fill="none" xmlns="http://www.w3.org/2000/svg">
<path d="M11.9756 12.4289H11.05V11.8811C11.05 11.6356 11.2389 11.4467 11.4844 11.4467H11.5411C11.7867 11.4467 11.9756 11.6356 11.9756 11.8811V12.4289ZM8.48111 11.2767C8.23556 11.2767 8.04667 11.4278 8.04667 11.6356V14.28C8.04667 14.4689 8.23556 14.6389 8.48111 14.6389C8.72667 14.6389 8.91556 14.4878 8.91556 14.28V11.6356C8.91556 11.4278 8.72667 11.2767 8.48111 11.2767ZM14.1667 9.80333V14.8089C14.1667 16.0178 13.1278 17 11.8433 17H2.32333C1.03889 17 0 16.0178 0 14.8089V9.80333C0 8.59445 1.03889 7.61222 2.32333 7.61222H11.8622C13.1278 7.61222 14.1667 8.59445 14.1667 9.80333ZM2.94667 15.3567V10.0678H4.13667V9.29333H0.982222V10.0678H1.96444V15.3567H2.94667ZM6.49778 10.8611H5.51556V13.6756C5.51556 14.0911 5.53444 14.28 5.51556 14.3556C5.44 14.5822 5.08111 14.8089 4.93 14.3744C4.91111 14.2989 4.93 14.0722 4.93 13.6944V10.8611H3.94778V13.6567C3.94778 14.0911 3.92889 14.4122 3.94778 14.5444C3.96667 14.8089 3.96667 15.0922 4.19333 15.2622C4.62778 15.5833 5.47778 15.2056 5.70444 14.7522V15.3378H6.49778V10.8611ZM9.65222 14.0911V11.7489C9.65222 10.8611 8.99111 10.3133 8.06556 11.05V9.31222H7.08333V15.3378L7.89556 15.3189L7.97111 14.9411C8.99111 15.8856 9.65222 15.2244 9.65222 14.0911ZM12.7311 13.7889H11.9944C11.9944 13.8267 11.9944 13.8456 11.9944 13.8833V14.2989C11.9944 14.5256 11.8056 14.6956 11.5978 14.6956H11.4467C11.22 14.6956 11.05 14.5067 11.05 14.2989V14.2611V13.7889V13.2222H12.75V12.58C12.75 12.1078 12.7311 11.6544 12.6933 11.39C12.58 10.54 11.39 10.4078 10.7856 10.8422C10.5967 10.9744 10.4644 11.1633 10.37 11.39C10.2944 11.6356 10.2378 11.9567 10.2378 12.3911V13.7889C10.2378 16.1122 13.0711 15.7911 12.7311 13.7889ZM8.93444 6.17667C8.99111 6.30889 9.06667 6.40333 9.18 6.47889C9.29333 6.55444 9.42556 6.59222 9.57667 6.59222C9.72778 6.59222 9.84111 6.55444 9.95444 6.47889C10.0678 6.40333 10.1622 6.29 10.2378 6.12L10.2189 6.49778H11.3144V1.83222H10.4456V5.47778C10.4456 5.66667 10.2756 5.83667 10.0867 5.83667C9.89778 5.83667 9.72778 5.66667 9.72778 5.47778V1.83222H8.82111V4.98667C8.82111 5.38333 8.82111 5.64778 8.84 5.79889C8.85889 5.93111 8.89667 6.06333 8.93444 6.17667ZM5.61 3.55111C5.61 3.09778 5.64778 2.75778 5.72333 2.49333C5.79889 2.24778 5.93111 2.04 6.12 1.88889C6.30889 1.73778 6.55444 1.66222 6.85667 1.66222C7.10222 1.66222 7.32889 1.71889 7.51778 1.81333C7.70667 1.90778 7.83889 2.04 7.93333 2.19111C8.02778 2.34222 8.10333 2.51222 8.14111 2.68222C8.17889 2.85222 8.19778 3.09778 8.19778 3.43778V4.62778C8.19778 5.06222 8.17889 5.38333 8.14111 5.59111C8.10333 5.79889 8.02778 5.98778 7.93333 6.15778C7.82 6.32778 7.68778 6.46 7.51778 6.55444C7.34778 6.63 7.14 6.68667 6.91333 6.68667C6.66778 6.68667 6.46 6.64889 6.27111 6.57333C6.10111 6.49778 5.96889 6.38444 5.87444 6.25222C5.78 6.10111 5.70444 5.93111 5.66667 5.72333C5.62889 5.51556 5.61 5.21333 5.61 4.79778V3.55111ZM6.47889 5.40222C6.47889 5.66667 6.66778 5.87444 6.91333 5.87444C7.15889 5.87444 7.34778 5.66667 7.34778 5.40222V2.90889C7.34778 2.64444 7.15889 2.43667 6.91333 2.43667C6.66778 2.43667 6.47889 2.64444 6.47889 2.90889V5.40222ZM3.43778 6.64889H4.47667V3.06L5.70444 0H4.57111L3.92889 2.28556L3.24889 0H2.13444L3.43778 3.07889V6.64889Z" fill="#424666"/>
</svg>
