<svg width="1067" height="857" viewBox="0 0 1067 857" fill="none" xmlns="http://www.w3.org/2000/svg">
<path d="M0 35.0093C0 35.0093 39 101.76 298 16.7599C557 -68.2406 533 199.758 865 159.758C1197 119.758 1088.38 727.568 765.332 693.734C442.281 659.901 442.574 797.757 278.267 848.051C113.96 898.346 -2 714.365 -2 714.365L0 35.0093Z" fill="url(#paint0_linear)"/>
<defs>
<linearGradient id="paint0_linear" x1="871.881" y1="161.723" x2="303.466" y2="792.656" gradientUnits="userSpaceOnUse">
<stop stop-color="#EBEEFF"/>
<stop offset="0.484375" stop-color="#F6EBFF"/>
<stop offset="1" stop-color="#E2E5FF" stop-opacity="0"/>
</linearGradient>
</defs>
</svg>
