<svg width="1498" height="1256" viewBox="0 0 1498 1256" fill="none" xmlns="http://www.w3.org/2000/svg">
<path d="M0 139.702C0 139.702 153.975 251.993 489.922 55.4807C825.868 -141.032 917.853 249.672 1263.8 223.47C1609.74 197.268 1582.75 1067.99 1113.82 1018.88C644.897 969.773 645.322 1169.86 406.822 1242.86C168.322 1315.86 0 1048.83 0 1048.83V139.702Z" fill="url(#paint0_linear)"/>
<defs>
<linearGradient id="paint0_linear" x1="757.703" y1="677.251" x2="20.8237" y2="672.978" gradientUnits="userSpaceOnUse">
<stop stop-color="#F6F7FF"/>
<stop offset="0.723958" stop-color="#FBF6FF"/>
<stop offset="1" stop-color="#F6F7FF" stop-opacity="0"/>
</linearGradient>
</defs>
</svg>
