<svg width="1920" height="1023" viewBox="0 0 1920 1023" fill="none" xmlns="http://www.w3.org/2000/svg">
<path d="M34.0726 1016.02C-17.0566 1006.22 -58.8653 979.912 -96.147 945.868C-95.0818 944.578 -106 27.7036 -106 27.7036C-92.6851 22.8033 -79.3702 18.4188 -66.5879 12.7447C-31.9692 -2.21414 5.57873 -2.21414 40.1974 3.97573C104.908 15.3238 163.227 43.1782 212.758 86.2494C235.66 105.851 262.023 117.973 292.381 121.067C318.745 123.904 344.309 120.552 369.075 113.588C369.075 113.588 430.619 89.1939 521.397 81.607C612.176 74.0201 713.664 118.488 744.821 208.757C745.087 209.273 745.354 210.047 745.62 210.821C749.348 221.911 752.81 233.259 756.272 244.349C758.402 251.313 759.467 258.534 759.467 265.756L760 296.447C760 305.216 758.402 319.659 756.805 328.17C749.614 365.309 733.104 397.548 706.208 425.145L706.062 425.295C689.066 442.785 671.816 460.535 658.008 480.338C640.699 505.355 634.574 532.178 640.965 562.354C648.954 598.719 668.66 629.669 688.899 660.36C699.55 676.866 710.735 693.115 718.458 710.911C727.245 731.286 726.18 753.208 721.653 774.873C711.001 824.907 683.04 863.078 636.438 887.064C610.873 900.217 582.912 904.602 553.087 902.023C528.055 899.96 504.354 894.543 482.784 883.969C450.296 867.979 417.541 852.762 381.325 845.798C341.913 838.319 304.365 843.477 269.746 862.047C234.595 881.132 209.296 910.792 189.058 944.062C149.442 1017.73 115.882 1034.3 34.0726 1016.02Z" fill="url(#paint0_linear)"/>
<path d="M80.1956 872.115C46.5424 865.674 19.024 848.385 -5.51476 826.011C-4.81365 825.164 -12 222.597 -12 222.597C-3.23616 219.376 5.52768 216.495 13.941 212.766C36.7269 202.935 61.441 202.935 84.2269 207.003C126.819 214.461 165.205 232.767 197.806 261.073C212.88 273.955 230.232 281.921 250.214 283.955C267.566 285.82 284.393 283.616 300.694 279.04C300.694 279.04 341.202 263.008 400.952 258.022C460.702 253.036 527.502 282.26 548.009 341.585C548.185 341.924 548.36 342.432 548.535 342.941C550.989 350.229 553.268 357.687 555.546 364.975C556.948 369.552 557.649 374.298 557.649 379.044L558 399.214C558 404.977 556.948 414.469 555.897 420.062C551.164 444.47 540.297 465.658 522.594 483.794L522.498 483.893C511.311 495.387 499.957 507.052 490.869 520.066C479.476 536.508 475.445 554.136 479.651 573.967C484.91 597.866 497.88 618.206 511.201 638.376C518.212 649.224 525.574 659.903 530.657 671.598C536.441 684.989 535.74 699.396 532.76 713.634C525.749 746.516 507.345 771.602 476.672 787.366C459.845 796.01 441.441 798.891 421.81 797.196C405.334 795.841 389.734 792.281 375.537 785.332C354.153 774.823 332.594 764.822 308.756 760.246C282.815 755.33 258.101 758.72 235.316 770.924C212.179 783.467 195.528 802.959 182.207 824.825C156.132 873.241 134.042 884.131 80.1956 872.115Z" fill="url(#paint1_linear)"/>
<path d="M1772.89 698.259C1771.96 699.554 1720.99 767.841 1753.4 824.838C1785.86 881.824 1840.12 835.176 1880.26 888.743C1925.77 949.447 2013.28 748.652 1906.64 646.942C1878.65 620.185 1831.36 617.008 1772.89 698.259Z" fill="url(#paint2_linear)"/>
<path d="M1868.04 875.649C1868.51 869.973 1866.07 854.863 1832.24 841.091C1789.52 823.681 1743.79 782.332 1816.86 729.049C1868.21 691.65 1922.54 705.472 1953.56 733.661C1947.17 702.318 1932.71 671.708 1906.75 646.955C1878.74 620.186 1831.42 617.007 1772.92 698.293C1771.99 699.589 1721 767.905 1753.42 824.927C1782.65 876.272 1829.62 843.476 1868.04 875.649Z" fill="url(#paint3_linear)"/>
<defs>
<linearGradient id="paint0_linear" x1="326.931" y1="528.972" x2="-99.0686" y2="527.145" gradientUnits="userSpaceOnUse">
<stop stop-color="#F6F7FF"/>
<stop offset="0.484375" stop-color="#FBF6FF"/>
<stop offset="1" stop-color="#F6F7FF" stop-opacity="0"/>
</linearGradient>
<linearGradient id="paint1_linear" x1="454" y1="331.32" x2="22.851" y2="656.603" gradientUnits="userSpaceOnUse">
<stop stop-color="#EBEEFF"/>
<stop offset="0.484375" stop-color="#F6EBFF"/>
<stop offset="1" stop-color="#E2E5FF" stop-opacity="0"/>
</linearGradient>
<linearGradient id="paint2_linear" x1="1731.01" y1="812.418" x2="1883.76" y2="759.739" gradientUnits="userSpaceOnUse">
<stop stop-color="#4B33E1"/>
<stop offset="1" stop-color="#892AE2"/>
</linearGradient>
<linearGradient id="paint3_linear" x1="1801.29" y1="902.08" x2="1868.63" y2="679.828" gradientUnits="userSpaceOnUse">
<stop offset="0.00320354" stop-color="#413686"/>
<stop offset="0.0357953" stop-color="#4B33E1"/>
<stop offset="0.0989583" stop-color="#413686"/>
<stop offset="0.2339" stop-color="#4B33E1"/>
<stop offset="0.4238" stop-color="#791FE2"/>
<stop offset="0.6002" stop-color="#892AE2"/>
<stop offset="0.7604" stop-color="#791FE2"/>
<stop offset="0.8989" stop-color="#791FE2"/>
<stop offset="1" stop-color="#892AE2"/>
</linearGradient>
</defs>
</svg>
