<svg width="1490" height="1256" viewBox="0 0 1490 1256" fill="none" xmlns="http://www.w3.org/2000/svg">
<path d="M-8.82178 139.837C-8.82178 139.837 145.154 252.128 481.1 55.6155C817.046 -140.897 909.031 249.807 1254.98 223.605C1600.92 197.403 1573.92 1068.12 1105 1019.02C636.075 969.908 636.5 1170 398 1243C159.5 1316 -8.82178 1048.96 -8.82178 1048.96V139.837Z" fill="url(#paint0_linear)"/>
<defs>
<linearGradient id="paint0_linear" x1="748.881" y1="677.386" x2="12.002" y2="673.113" gradientUnits="userSpaceOnUse">
<stop stop-color="#F6F7FF"/>
<stop offset="0.723958" stop-color="#FBF6FF"/>
<stop offset="1" stop-color="#F6F7FF" stop-opacity="0"/>
</linearGradient>
</defs>
</svg>
